…
## Comparing means

Is there an absolute difference between the income ranks of the Lower-layer Super Output Areas?


``` r
lon_dims_imd_2019 %>%
  group_by(la19nm) %>%
  summarise(avg = mean(Income_london_rank)) %>%
  arrange(la19nm, .locale = "en")
```

``` output
# A tibble: 33 × 2
   la19nm                  avg
   <chr>                 <dbl>
 1 Barking and Dagenham  7786.
 2 Barnet               17049.
 3 Bexley               18592.
 4 Brent                11500.
 5 Bromley              20826.
 6 Camden               14359.
 7 City of London       19800.
 8 Croydon              14686.
 9 Ealing               13718.
10 Enfield              11403.
# ℹ 23 more rows
```
…
