…
The row names have been moved into a column called term, and the column names are simple and consistent (and can be accessed using \$).

Information about the model can be explored with 'augment'.
The function augments the original data with information from the model, such as the fitted values and residuals for each of the original points in the regression.


``` r
augment(reg_LivEnv_health)
```

``` output
# A tibble: 4,835 × 8
   health_london_rank livingEnv_london_rank .fitted  .resid     .hat .sigma
                <int>                 <int>   <dbl>   <dbl>    <dbl>  <dbl>
 1              32113                  7789  19588.  12525. 0.000250  7624.
 2              29705                 13070  21400.   8305. 0.000252  7625.
 3              17600                  4092  18320.   -720. 0.000458  7626.
 4              17907                  9397  20140.  -2233. 0.000213  7626.
 5              21581                 10629  20562.   1019. 0.000207  7626.
 6              16414                 11162  20745.  -4331. 0.000210  7626.
 7              12334                  8672  19891.  -7557. 0.000226  7625.
 8               9661                  9611  20213. -10552. 0.000211  7625.
 9              16050                  2269  17694.  -1644. 0.000624  7626.
10              18178                  4309  18394.   -216. 0.000441  7626.
# ℹ 4,825 more rows
# ℹ 2 more variables: .cooksd <dbl>, .std.resid <dbl>
```
…
Use of 'augment':


``` r
augment(glmlondims)
```

``` output
# A tibble: 4,835 × 8
   city  Income_london_rank .fitted  .resid     .hat .sigma   .cooksd .std.resid
   <lgl>              <int>   <dbl>   <dbl>    <dbl>  <dbl>     <dbl>      <dbl>
 1 TRUE               32831   -5.61  3.35   0.00194   0.128   2.65e-1     3.35  
 2 TRUE               29901   -5.81  3.41   0.00115   0.127   1.93e-1     3.41  
 3 TRUE               18510   -6.59  3.63   0.000233  0.126   8.51e-2     3.63  
 4 TRUE                6029   -7.45  3.86   0.000332  0.125   2.87e-1     3.86  
 5 FALSE              14023   -6.90 -0.0448 0.000239  0.137   1.20e-7    -0.0448
 6 FALSE               6261   -7.44 -0.0343 0.000330  0.137   9.72e-8    -0.0343
 7 FALSE               3382   -7.64 -0.0311 0.000360  0.137   8.70e-8    -0.0311
 8 FALSE               7506   -7.35 -0.0358 0.000315  0.137   1.01e-7    -0.0358
 9 FALSE               8902   -7.25 -0.0376 0.000298  0.137   1.05e-7    -0.0376
10 FALSE               9033   -7.25 -0.0378 0.000296  0.137   1.06e-7    -0.0378
# ℹ 4,825 more rows
```
…
``` output
# A tibble: 1 × 4
  statistic p.value parameter method                    
      <dbl>   <dbl>     <int> <chr>                     
1     2841.       0       288 Pearson's Chi-squared test
```


``` r
augment(chit)
```

``` output
# A tibble: 330 × 9
   la19nm    IDAOP_london_decile .observed   .prop .row.prop .col.prop .expected
   <fct>     <fct>                   <int>   <dbl>     <dbl>     <dbl>     <dbl>
 1 Barking … 1                           6 1.24e-3    0.0545   0.0124     11.0  
 2 Barnet    1                           6 1.24e-3    0.0284   0.0124     21.1  
 3 Bexley    1                           0 0          0        0          14.6  
 4 Brent     1                          12 2.48e-3    0.0694   0.0248     17.3  
 5 Bromley   1                           2 4.14e-4    0.0102   0.00414    19.7  
 6 Camden    1                          12 2.48e-3    0.0902   0.0248     13.3  
 7 City of … 1                           0 0          0        0           0.599
 8 Croydon   1                           8 1.65e-3    0.0364   0.0166     22.0  
 9 Ealing    1                          11 2.28e-3    0.0561   0.0228     19.6  
10 Enfield   1                           9 1.86e-3    0.0492   0.0186     18.3  
# ℹ 320 more rows
# ℹ 2 more variables: .resid <dbl>, .std.resid <dbl>
```
…
